<svg width="51" height="61" viewBox="0 0 51 61" fill="none" xmlns="http://www.w3.org/2000/svg">
<path d="M17.8303 47.0208C14.2859 47.0208 10.9575 46.5499 7.84533 45.6081C4.77636 44.6663 2.16125 43.3178 0 41.5626L2.85285 35.5265C5.10055 37.1961 7.4347 38.4375 9.85529 39.2509C12.3191 40.0215 14.9991 40.4068 17.8951 40.4068C21.0938 40.4068 23.5576 39.8502 25.2866 38.7372C27.0588 37.6242 27.9449 36.0616 27.9449 34.0496C27.9449 32.3372 27.1237 31.0315 25.4811 30.1325C23.8818 29.1907 21.2235 28.3131 17.5061 27.4997C11.714 26.2583 7.49953 24.6529 4.86281 22.6837C2.22609 20.7144 0.907724 17.8462 0.907724 14.079C0.907724 11.382 1.64255 8.98464 3.1122 6.88697C4.58185 4.78931 6.65664 3.14115 9.33659 1.94248C12.0598 0.743818 15.1936 0.144485 18.738 0.144485C21.9799 0.144485 25.0489 0.636794 27.9449 1.62141C30.8842 2.56322 33.2832 3.89031 35.1419 5.60269L32.3539 11.6388C28.2475 8.3853 23.7089 6.75854 18.738 6.75854C15.7555 6.75854 13.3997 7.37928 11.6707 8.62075C9.94174 9.81942 9.07724 11.4676 9.07724 13.5652C9.07724 15.3632 9.83368 16.7331 11.3466 17.675C12.9027 18.6168 15.5394 19.4944 19.2567 20.3077C23.1037 21.2067 26.2376 22.1914 28.6582 23.2616C31.0788 24.289 32.9374 25.6375 34.2342 27.3071C35.5309 28.9338 36.1793 30.9887 36.1793 33.4716C36.1793 36.2114 35.4445 38.6088 33.9748 40.6636C32.5052 42.6757 30.3872 44.2382 27.6208 45.3513C24.8544 46.4643 21.5909 47.0208 17.8303 47.0208Z" fill="#51D2B3"/>
<path d="M32.5321 46.8764C36.0766 46.8764 39.4049 46.4054 42.5171 45.4636C45.5861 44.5218 48.2012 43.1733 50.3624 41.4181L47.5096 35.382C45.2619 37.0516 42.9277 38.2931 40.5071 39.1064C38.0433 39.877 35.3634 40.2623 32.4673 40.2623C29.2686 40.2623 26.8048 39.7058 25.0758 38.5927C23.3036 37.4797 22.4175 35.9171 22.4175 33.9051C22.4175 32.1927 23.2388 30.887 24.8813 29.988C26.4806 29.0462 29.139 28.1686 32.8563 27.3552C38.6485 26.1138 42.8629 24.5084 45.4996 22.5392C48.1363 20.5699 49.4547 17.7017 49.4547 13.9345C49.4547 11.2375 48.7199 8.84015 47.2502 6.74249C45.7806 4.64482 43.7058 2.99666 41.0258 1.798C38.3027 0.599332 35.1688 0 31.6244 0C28.3825 0 25.3136 0.492309 22.4175 1.47693C19.4782 2.41873 17.0792 3.74582 15.2205 5.4582L18.0085 11.4943C22.1149 8.24082 26.6535 6.61406 31.6244 6.61406C34.6069 6.61406 36.9627 7.23479 38.6917 8.47627C40.4207 9.67493 41.2852 11.3231 41.2852 13.4208C41.2852 15.2188 40.5287 16.5887 39.0159 17.5305C37.4598 18.4723 34.823 19.3499 31.1057 20.1633C27.2587 21.0623 24.1249 22.0469 21.7043 23.1171C19.2837 24.1445 17.425 25.493 16.1282 27.1626C14.8315 28.7894 14.1831 30.8442 14.1831 33.3272C14.1831 36.067 14.9179 38.4643 16.3876 40.5191C17.8572 42.5312 19.9753 44.0937 22.7417 45.2068C25.5081 46.3198 28.7716 46.8764 32.5321 46.8764Z" fill="#51D2B3"/>
<path d="M2.25803 58.5295C1.44288 58.5295 0.794328 58.3397 0.312378 57.9602L0.624753 57.1773C1.1067 57.5332 1.65708 57.7111 2.27588 57.7111C2.54363 57.7111 2.7489 57.6666 2.8917 57.5776C3.04045 57.4887 3.11483 57.3641 3.11483 57.204C3.11483 57.0676 3.06425 56.9609 2.9631 56.8838C2.86195 56.8007 2.6894 56.7296 2.44545 56.6703L1.69575 56.5012C0.874653 56.3233 0.464103 55.9052 0.464103 55.2469C0.464103 54.9741 0.541453 54.7339 0.696153 54.5264C0.850853 54.3129 1.06803 54.1468 1.34768 54.0282C1.62733 53.9096 1.9516 53.8503 2.3205 53.8503C2.6418 53.8503 2.9512 53.9007 3.2487 54.0015C3.5462 54.0964 3.808 54.2358 4.0341 54.4196L3.70388 55.1758C3.25168 54.8437 2.78758 54.6776 2.31158 54.6776C2.05573 54.6776 1.8564 54.725 1.7136 54.8199C1.5708 54.9148 1.4994 55.0453 1.4994 55.2113C1.4994 55.3418 1.54105 55.4456 1.62435 55.5227C1.7136 55.5998 1.86235 55.665 2.0706 55.7184L2.83815 55.8874C3.2844 55.9883 3.60868 56.1454 3.81098 56.3589C4.01923 56.5665 4.12335 56.8393 4.12335 57.1773C4.12335 57.5925 3.95675 57.9216 3.62355 58.1648C3.29035 58.4079 2.83518 58.5295 2.25803 58.5295Z" fill="#393939"/>
<path d="M8.15724 58.4583L6.18482 56.3856V58.4583H5.07812V51.911H6.18482V55.9497L8.04122 53.9748H9.38889L7.36292 56.1187L9.54954 58.4583H8.15724Z" fill="#393939"/>
<path d="M9.99384 53.9659H11.1005V58.4583H9.99384V53.9659ZM11.163 51.9288V53.023H9.92244V51.9288H11.163Z" fill="#393939"/>
<path d="M12.321 51.911H13.4277V58.4583H12.321V51.911Z" fill="#393939"/>
<path d="M14.6481 51.911H15.7548V58.4583H14.6481V51.911Z" fill="#393939"/>
<path d="M21.0755 58.5295C20.2603 58.5295 19.6118 58.3397 19.1298 57.9602L19.4422 57.1773C19.9242 57.5332 20.4745 57.7111 21.0933 57.7111C21.3611 57.7111 21.5664 57.6666 21.7092 57.5776C21.8579 57.4887 21.9323 57.3641 21.9323 57.204C21.9323 57.0676 21.8817 56.9609 21.7806 56.8838C21.6794 56.8007 21.5069 56.7296 21.2629 56.6703L20.5132 56.5012C19.6921 56.3233 19.2816 55.9052 19.2816 55.2469C19.2816 54.9741 19.3589 54.7339 19.5136 54.5264C19.6683 54.3129 19.8855 54.1468 20.1651 54.0282C20.4448 53.9096 20.7691 53.8503 21.138 53.8503C21.4593 53.8503 21.7687 53.9007 22.0662 54.0015C22.3637 54.0964 22.6255 54.2358 22.8516 54.4196L22.5213 55.1758C22.0691 54.8437 21.605 54.6776 21.129 54.6776C20.8732 54.6776 20.6739 54.725 20.5311 54.8199C20.3883 54.9148 20.3169 55.0453 20.3169 55.2113C20.3169 55.3418 20.3585 55.4456 20.4418 55.5227C20.5311 55.5998 20.6798 55.665 20.8881 55.7184L21.6556 55.8874C22.1019 55.9883 22.4261 56.1454 22.6284 56.3589C22.8367 56.5665 22.9408 56.8393 22.9408 57.1773C22.9408 57.5925 22.7742 57.9216 22.441 58.1648C22.1078 58.4079 21.6526 58.5295 21.0755 58.5295Z" fill="#393939"/>
<path d="M26.4749 53.8503C27.5519 53.8503 28.0903 54.4671 28.0903 55.7006V58.4583H26.9747V55.754C26.9747 55.3982 26.9063 55.1402 26.7694 54.9801C26.6326 54.814 26.4214 54.731 26.1357 54.731C25.7966 54.731 25.5229 54.8407 25.3147 55.0601C25.1064 55.2736 25.0023 55.5583 25.0023 55.9141V58.4583H23.8956V51.911H25.0023V54.6153C25.157 54.3722 25.3622 54.1854 25.6181 54.0549C25.874 53.9185 26.1596 53.8503 26.4749 53.8503Z" fill="#393939"/>
<path d="M33.584 53.9659V58.4583H32.4862V57.7378C32.3494 57.9868 32.153 58.1826 31.8972 58.3249C31.6413 58.4613 31.3498 58.5295 31.0225 58.5295C30.6298 58.5295 30.2818 58.4346 29.9783 58.2448C29.6749 58.055 29.4398 57.7852 29.2732 57.4353C29.1066 57.0854 29.0233 56.6792 29.0233 56.2166C29.0233 55.754 29.1066 55.3448 29.2732 54.989C29.4458 54.6272 29.6838 54.3485 29.9872 54.1527C30.2907 53.9511 30.6358 53.8503 31.0225 53.8503C31.3498 53.8503 31.6413 53.9215 31.8972 54.0638C32.153 54.2002 32.3494 54.3929 32.4862 54.642V53.9659H33.584ZM31.326 57.6577C31.6949 57.6577 31.9805 57.5302 32.1828 57.2752C32.3851 57.0202 32.4862 56.6614 32.4862 56.1988C32.4862 55.7243 32.3851 55.3596 32.1828 55.1046C31.9805 54.8496 31.6919 54.7221 31.3171 54.7221C30.9482 54.7221 30.6596 54.8555 30.4513 55.1224C30.249 55.3833 30.1479 55.7481 30.1479 56.2166C30.1479 56.6792 30.249 57.035 30.4513 57.2841C30.6596 57.5332 30.9511 57.6577 31.326 57.6577Z" fill="#393939"/>
<path d="M37.2267 53.8592C37.3992 53.8592 37.548 53.8829 37.6729 53.9303L37.664 54.9445C37.4736 54.8674 37.2772 54.8288 37.0749 54.8288C36.6941 54.8288 36.4026 54.9385 36.2003 55.158C36.0039 55.3774 35.9058 55.668 35.9058 56.0298V58.4583H34.7991V55.238C34.7991 54.7636 34.7753 54.3396 34.7277 53.9659H35.7719L35.8611 54.7577C35.9742 54.4671 36.1527 54.2447 36.3966 54.0905C36.6406 53.9363 36.9173 53.8592 37.2267 53.8592Z" fill="#393939"/>
<path d="M38.2941 53.9659H39.4008V58.4583H38.2941V53.9659ZM39.4633 51.9288V53.023H38.2227V51.9288H39.4633Z" fill="#393939"/>
<path d="M43.2006 53.8503C44.2775 53.8503 44.816 54.4671 44.816 55.7006V58.4583H43.7004V55.754C43.7004 55.3982 43.6319 55.1402 43.4951 54.9801C43.3582 54.814 43.147 54.731 42.8614 54.731C42.5223 54.731 42.2486 54.8407 42.0403 55.0601C41.8321 55.2736 41.7279 55.5583 41.7279 55.9141V58.4583H40.6212V55.238C40.6212 54.7636 40.5974 54.3396 40.5498 53.9659H41.5941L41.6744 54.7043C41.8291 54.4315 42.0373 54.2209 42.2991 54.0727C42.5669 53.9244 42.8674 53.8503 43.2006 53.8503Z" fill="#393939"/>
<path d="M50.3543 53.9659V58.316C50.3543 59.0158 50.1609 59.5466 49.7742 59.9083C49.3874 60.2701 48.8192 60.451 48.0695 60.451C47.3733 60.451 46.7605 60.3057 46.2309 60.0151L46.4095 59.17C46.9569 59.4547 47.5013 59.597 48.0427 59.597C48.846 59.597 49.2476 59.1996 49.2476 58.405V57.5154C49.1107 57.7585 48.9114 57.9572 48.6496 58.1114C48.3878 58.2597 48.0933 58.3338 47.766 58.3338C47.3733 58.3338 47.0223 58.2419 46.7129 58.058C46.4095 57.8682 46.1715 57.6043 45.9989 57.2663C45.8323 56.9223 45.749 56.5309 45.749 56.092C45.749 55.6532 45.8323 55.2647 45.9989 54.9267C46.1715 54.5827 46.4095 54.3188 46.7129 54.135C47.0223 53.9452 47.3733 53.8503 47.766 53.8503C48.0993 53.8503 48.3938 53.9215 48.6496 54.0638C48.9114 54.2002 49.1107 54.3929 49.2476 54.642V53.9659H50.3543ZM48.0606 57.462C48.4295 57.462 48.718 57.3404 48.9263 57.0973C49.1405 56.8541 49.2476 56.519 49.2476 56.092C49.2476 55.665 49.1435 55.33 48.9352 55.0868C48.727 54.8437 48.4354 54.7221 48.0606 54.7221C47.6917 54.7221 47.4001 54.8437 47.1859 55.0868C46.9777 55.33 46.8735 55.665 46.8735 56.092C46.8735 56.519 46.9777 56.8541 47.1859 57.0973C47.4001 57.3404 47.6917 57.462 48.0606 57.462Z" fill="#393939"/>
</svg>
